{ 
    "_id" : ObjectId("584c32df18f67b1194065673"), 
    "Name" : "aamir", 
    "Password" : "aamir", 
    "Path" : "public\\upload\\6b2facea-a12c-4b76-ae10-09ca9abd9aac.png"
}
{ 
    "_id" : ObjectId("584c33a03275f42620cb9b4a"), 
    "Name" : "aamir", 
    "Password" : "aamir", 
    "Path" : "public\\upload\\50e41dda-ca43-4924-b07c-bcb46d7b32a0.png"
}
{ 
    "_id" : ObjectId("584c3545c087712adce0cba2"), 
    "Name" : "aamir", 
    "Password" : "aamir", 
    "Path" : "public\\upload\\d86da1e6-396f-47f7-a7aa-528a564dc17c.png"
}
{ 
    "_id" : ObjectId("584c35abd2cf3a0ee050a36b"), 
    "Name" : "aamir", 
    "Password" : "aamir", 
    "Path" : "public\\upload\\a383f23d-d7d9-414e-82e7-af368101ad2e.png"
}
{ 
    "_id" : ObjectId("584c360baba395263c8c9d71"), 
    "Name" : "aamir", 
    "Password" : "aamir", 
    "Path" : "public\\upload\\e47b91b5-2c56-4cc8-90fb-36f42cb63eef.png"
}
{ 
    "_id" : ObjectId("584cfe5dd5435b296c069bef"), 
    "Name" : "aamir", 
    "Password" : "aamir", 
    "Path" : "public\\upload\\c2e5036f-5cca-4abc-ab7c-b9adf5ab661c.png"
}
{ 
    "_id" : ObjectId("584d2530997e5633748ae021"), 
    "Name" : "Navid", 
    "Password" : "navid", 
    "Path" : "public\\upload\\63ed37b2-4b87-4db1-a0a9-21ccc208d54a.png"
}
